MCAD server 10.113.88.219


bot 1115 slip 023.069
slip bot 1120 on 033.077
aligment 031.076
slip bot 1123 on 34.100

# Add MSU type B (MSU_SODIMAC_2)
# Put 1115 bot at 021.056
```
butler_functions:butler_pause_manual(1115).
application:set_env(butler_server, default_racktype_id, "MSU_SODIMAC_7").
List = [{56,22}, {56,23}, {56,24}, {56,25}, {56,26}].
ButlerIdList = [1115].
rack_spotter:add_butlers(ButlerIdList).
rack_spotter:set_remaining_coordinates(List).
```

Wifi
```
watch -n1 -d "awk 'NR==3 {print \"WiFi Link quality =  \" int(\$3*1.428571429) \"%   (\"\$3\"00/70.00)\"; print \"WiFi Signal level = \" \$4 \"00 dBm\"}''' /proc/net/wireless"
```

SSLOG
EHO: Emergency trigger
EHS: Signal from server

Butler vault
We save config for butlers in server vault

BBLOG
MILLIS: BBB timer value
DM: Data metrics from barcode

Save all logs using
/data/fw/save_all_logs.sh

Get the tar.gz from server
/home/gor/emb_logs

remote_logs Show data from server butler connection
outliers folder: recent barcodes with problems
remote logs: debug: get info realted with bateries and ODS
			 crash: server creash report
BBB: beaglebone log: datametrics, total voltage
SS: Sistem emergency units
IPU: Image processsing

WMD: Wheel motor driver
LMD: Lift motor driver

# Motor driver issue with bot 1125
# Due to voltage <50v
```
butler_task_functions:set_task_complete_for_butler(1125).
butler_functions:clear_butler_subtasks(1125).
```
